{
  "$schema": "../../node_modules/ng-packagr/ng-package.schema.json",
  "dest": "../../dist/dls-design",
  "lib": {
    "entryFile": "src/public-api.ts",
    "umdModuleIds": {
      "uuid/v4": "uuid/v4",
      "@ng-bootstrap/ng-bootstrap": "@ng-bootstrap/ng-bootstrap",
      "ng2-file-upload": "ng2-file-upload"
    }
  }
}
